…
# combining both positive and negative dataframes to create a plot with both
dom_casmurro_pos_sentiment <- bind_rows(
  mutate(dom_casmurro_pos_sentiment_oplexicon_v3.0_positive_chapters, Sentiment = "Positive"),
  mutate(dom_casmurro_pos_sentiment_oplexicon_v3.0_negative_chapters, Sentiment = "Negative")
)

# chapters with more positive words
dom_casmurro_pos_sentiment %>%
  filter(Sentiment == "Positive") %>%   
  group_by(chapter_id) %>%            
  summarise(total_positive_words = sum(n)) %>%  
  arrange(desc(total_positive_words)) 
```

    ## # A tibble: 147 × 2
    ##    chapter_id total_positive_words
    ##         <int>                <int>
    ##  1         18                   70
    ##  2        100                   57
    ##  3         25                   44
    ##  4         61                   43
    ##  5         41                   42
    ##  6         55                   39
    ##  7          9                   38
    ##  8         44                   38
    ##  9         32                   36
    ## 10         78                   36
    ## # ℹ 137 more rows

``` r
# chapters with more negative words
dom_casmurro_pos_sentiment %>%
  filter(Sentiment == "Negative") %>%   
  group_by(chapter_id) %>%               
  summarise(total_negative_words = sum(n)) %>%  
  arrange(desc(total_negative_words)) 
```

    ## # A tibble: 147 × 2
    ##    chapter_id total_negative_words
    ##         <int>                <int>
    ##  1         18                   60
    ##  2         67                   44
    ##  3         90                   38
    ##  4         25                   37
    ##  5         55                   36
    ##  6         44                   34
    ##  7        110                   33
    ##  8         41                   32
    ##  9         30                   30
    ## 10         56                   30
    ## # ℹ 137 more rows
…
