…
``` r
dom_casmurro_words <- dom_casmurro_words %>%
  mutate(word = str_to_lower(str_trim(word)))
```

Frequency list of words to have an overview of what have been used in
the book.

``` r
dom_casmurro_words %>% 
  count(word, sort = TRUE)
```

    ## # A tibble: 8,686 × 2
    ##    word      n
    ##    <chr> <int>
    ##  1 que    2684
    ##  2 a      2501
    ##  3 e      2186
    ##  4 de     1975
    ##  5 o      1695
    ##  6 não    1531
    ##  7 me     1035
    ##  8 se      858
    ##  9 um      774
    ## 10 é       718
    ## # ℹ 8,676 more rows
…
``` r
# str_extract_all gives access to all
# filter(is.na!) removes entries without capitu

dom_casmurro_pages %>%
  mutate(word_after_capitu = str_extract_all(text, "Capitu(\\s+\\w+){5}")) %>%
  unnest(word_after_capitu) %>% 
  filter(!is.na(word_after_capitu)) %>%
  select(word_after_capitu) %>%
  print()
```

    ## # A tibble: 79 × 1
    ##    word_after_capitu                                 
    ##    <chr>                                             
    ##  1 "Capitu fez quatorze\nà semana passada"           
    ##  2 "Capitu abanava a cabeça com uma"                 
    ##  3 "Capitu um dia notou a diferença"                 
    ##  4 "Capitu estava ao pé do\nmuro"                    
    ##  5 "Capitu tinha os olhos no chão"                   
    ##  6 "Capitu queria saber que notícia era"             
    ##  7 "Capitu não parecia crer nem\ndescrer"            
    ##  8 "Capitu gostava tanto de minha mãe"               
    ##  9 "Capitu estava agora particularmente nas lágrimas"
    ## 10 "Capitu quis que lhe repetisse as"                
    ## # ℹ 69 more rows

Context before Capitu (testing with 5)

``` r
dom_casmurro_pages %>%
  mutate(word_before_capitu = str_extract_all(text, "(\\b\\w+\\s+){5}Capitu")) %>%
  unnest(word_before_capitu) %>% 
  filter(!is.na(word_before_capitu)) %>%
  select(word_before_capitu) %>%
  print()
```

    ## # A tibble: 77 × 1
    ##    word_before_capitu                                                 
    ##    <chr>                                                              
    ##  1 "Com que então eu amava Capitu"                                    
    ##  2 "acordar com o\npensamento em Capitu"                              
    ##  3 "para legitimar a resposta de Capitu"                              
    ##  4 "desejo era ir atrás de Capitu"                                    
    ##  5 "se obedeciam às recomendações de Capitu"                          
    ##  6 "ter seguido o\nconselho de Capitu"                                
    ##  7 "Não confiaria esta idéia a Capitu"                                
    ##  8 "Iria contar\nestas esperanças a Capitu"                           
    ##  9 "XXXI\n                        AS CURIOSIDADES DE CAPITU\n\nCapitu"
    ## 10 "César acendia os olhos de Capitu"                                 
    ## # ℹ 67 more rows
…
``` r
# trying another package (tm)
dom_casmurro_words_filtered <- dom_casmurro_words %>%
  filter(!word %in% stopwords("pt"))

# word count without common words
dom_casmurro_words_filtered %>% 
  count(word, sort = TRUE)
```

    ## # A tibble: 8,518 × 2
    ##    word         n
    ##    <chr>    <int>
    ##  1 é          718
    ##  2 capitu     341
    ##  3 mãe        229
    ##  4 dias       192
    ##  5 tudo       189
    ##  6 capítulo   188
    ##  7 disse      184
    ##  8 casa       170
    ##  9 ser        168
    ## 10 olhos      164
    ## # ℹ 8,508 more rows
…
